\relax 
\@writefile{toc}{\contentsline {section}{\numberline {1}Introduction}{1}\protected@file@percent }
\newlabel{Section_introduction}{{1}{1}}
\@writefile{toc}{\contentsline {section}{\numberline {2}Related works}{4}\protected@file@percent }
\newlabel{Section_relatedworks}{{2}{4}}
\@writefile{toc}{\contentsline {subsection}{\numberline {2.1}Multi-tone technology introduction}{4}\protected@file@percent }
\newlabel{eq_dithering method1}{{1}{5}}
\newlabel{eq_dithering method2}{{2}{5}}
\newlabel{eq_dithering method3}{{3}{5}}
\@writefile{lof}{\contentsline {figure}{\numberline {1}{\ignorespaces  Error diffusion flow chart.}}{5}\protected@file@percent }
\newlabel{ED}{{1}{5}}
\newlabel{eq_dithering method3}{{4}{6}}
\newlabel{eq_dithering method3}{{5}{6}}
\newlabel{eq_dithering method3}{{6}{6}}
\newlabel{eq_dithering method3}{{7}{6}}
\@writefile{toc}{\contentsline {subsection}{\numberline {2.2}Histogram shift technology introduction}{6}\protected@file@percent }
\@writefile{lof}{\contentsline {figure}{\numberline {2}{\ignorespaces Histogram shift diagram.}}{6}\protected@file@percent }
\newlabel{fig_Histogram shift diagram}{{2}{6}}
\@writefile{toc}{\contentsline {subsection}{\numberline {2.3}Referenced algorithm}{6}\protected@file@percent }
\@writefile{lof}{\contentsline {figure}{\numberline {3}{\ignorespaces  Flow chart of data embedding and extraction of Yu's method.}}{7}\protected@file@percent }
\newlabel{Flowchart of data embeding and extration of Yu's method}{{3}{7}}
\@writefile{toc}{\contentsline {section}{\numberline {3}Proposed scheme}{8}\protected@file@percent }
\newlabel{Section_proposed}{{3}{8}}
\@writefile{lof}{\contentsline {figure}{\numberline {4}{\ignorespaces Overall block of diagram of the algorithm.}}{8}\protected@file@percent }
\newlabel{Overall block of diagram of the algorithm}{{4}{8}}
\@writefile{toc}{\contentsline {subsection}{\numberline {3.1}preliminary work}{8}\protected@file@percent }
\newlabel{section_embed}{{3.1}{8}}
\@writefile{lof}{\contentsline {figure}{\numberline {5}{\ignorespaces Five kinds of methods to divide target image.}}{9}\protected@file@percent }
\newlabel{fig_Five kinds of methods to divide targetimage}{{5}{9}}
\@writefile{lof}{\contentsline {figure}{\numberline {6}{\ignorespaces  Pattern histograms of Lena.}}{9}\protected@file@percent }
\newlabel{fig_histgrams}{{6}{9}}
\@writefile{toc}{\contentsline {subsection}{\numberline {3.2}Data embedding}{10}\protected@file@percent }
\newlabel{section_embed}{{3.2}{10}}
\@writefile{lof}{\contentsline {figure}{\numberline {7}{\ignorespaces Block diagram of Data embedding.}}{10}\protected@file@percent }
\newlabel{fig_DATAembedding}{{7}{10}}
\@writefile{lof}{\contentsline {figure}{\numberline {8}{\ignorespaces An example of an original block and its similar blocks.}}{11}\protected@file@percent }
\newlabel{fig_similar block}{{8}{11}}
\@writefile{lof}{\contentsline {figure}{\numberline {9}{\ignorespaces A LUT example of halftone Lena image.}}{11}\protected@file@percent }
\newlabel{fig_LUT}{{9}{11}}
\newlabel{eq_emdedding Watemark}{{8}{12}}
\@writefile{loa}{\contentsline {algorithm}{\numberline {1}{\ignorespaces Data hiding}}{12}\protected@file@percent }
\@writefile{loa}{\contentsline {algorithm}{\numberline {2}{\ignorespaces Data Extration}}{13}\protected@file@percent }
\@writefile{lof}{\contentsline {figure}{\numberline {10}{\ignorespaces Block diagram of Data extraction.}}{13}\protected@file@percent }
\newlabel{fig_extract}{{10}{13}}
\@writefile{toc}{\contentsline {subsection}{\numberline {3.3}Data extraction and image decryption}{13}\protected@file@percent }
\newlabel{extract}{{9}{14}}
\@writefile{lof}{\contentsline {figure}{\numberline {11}{\ignorespaces Two kinds of methods to embed LUT.}}{14}\protected@file@percent }
\newlabel{Fig_LUT embeding}{{11}{14}}
\@writefile{toc}{\contentsline {section}{\numberline {4}Experimental results}{14}\protected@file@percent }
\newlabel{Section_experiments}{{4}{14}}
\@writefile{toc}{\contentsline {subsection}{\numberline {4.1}Analysis of watermark extraction effect}{15}\protected@file@percent }
\@writefile{lof}{\contentsline {figure}{\numberline {12}{\ignorespaces  Six test error diffused images Lena, F16, Bridge (above row, from left to right), Man,baboon and Peppesrs (below row, from left to right)}}{15}\protected@file@percent }
\newlabel{fig_MultitoneImages}{{12}{15}}
\@writefile{lot}{\contentsline {table}{\numberline {1}{\ignorespaces Correlation coefficient between extracted watermark and original watermark}}{16}\protected@file@percent }
\newlabel{t3}{{1}{16}}
\@writefile{toc}{\contentsline {subsection}{\numberline {4.2}Image quality assessment}{16}\protected@file@percent }
\newlabel{eq_PSNR}{{10}{16}}
\newlabel{eq_MSE}{{11}{16}}
\@writefile{toc}{\contentsline {subsection}{\numberline {4.3}Embedded capacity test}{17}\protected@file@percent }
\bibstyle{elsarticle-num}
\bibcite{CHEN C C}{1}
\bibcite{NATARAJAN V.}{2}
\bibcite{AFSHARIZADEH M.}{3}
\bibcite{ZHANG Z.}{4}
\@writefile{lot}{\contentsline {table}{\numberline {2}{\ignorespaces The Capacity of the embedding method of Yu }}{18}\protected@file@percent }
\newlabel{t1}{{2}{18}}
\@writefile{lot}{\contentsline {table}{\numberline {3}{\ignorespaces The Capacity of the embedding method of Proposed }}{18}\protected@file@percent }
\newlabel{t2}{{3}{18}}
\@writefile{toc}{\contentsline {section}{\numberline {5}Conclusion}{18}\protected@file@percent }
\newlabel{Section_conclusion}{{5}{18}}
\bibcite{KIM C.}{5}
\bibcite{ORHAN BULAN.}{6}
\bibcite{WANG W.}{7}
\bibcite{Y.Q. SHI.}{8}
\bibcite{Honsinger C W.}{9}
\bibcite{NI Z.}{10}
\bibcite{XUAN G .}{11}
\bibcite{TAI W L.}{12}
\bibcite{FRIDRICH J.}{13}
\bibcite{CELIK C.}{14}
\bibcite{TIAN J.}{15}
\bibcite{THODI D M.}{16}
\bibcite{SACHNEV V.}{17}
\bibcite{LU Z M.}{18}
\bibcite{YU F X.}{19}
\bibcite{LIEN B K.}{20}
\bibcite{BRIAN K.}{21}
\bibcite{NASKAR R.}{22}
\bibcite{WU M Y.}{23}
\bibcite{ZHANG F.}{24}
\bibcite{GUO J M.}{25}
\bibcite{LIU Y F.}{26}
\bibcite{Guo J M.}{27}
\@writefile{lof}{\contentsline {figure}{\numberline {13}{\ignorespaces Comparison of cover image, secret image and recovered cover image.}}{21}\protected@file@percent }
\newlabel{fig_ScreatImages}{{13}{21}}
\@writefile{lof}{\contentsline {figure}{\numberline {14}{\ignorespaces  Comparison of PSNR for watermarked images Lena, F16, Bridge (above row, from left to right), Man,baboon and Peppesrs (below row, from left to right)}}{22}\protected@file@percent }
\newlabel{fig_zx}{{14}{22}}
\@writefile{lof}{\contentsline {figure}{\numberline {15}{\ignorespaces The average value of PSNR for Kodak 24 picture's different capacity}}{22}\protected@file@percent }
\newlabel{fig-zhexiantu}{{15}{22}}
